<svg xmlns="http://www.w3.org/2000/svg" width="33.301" height="35" viewBox="0 0 33.301 35">
  <g id="Group_38664" data-name="Group 38664" transform="translate(-1217 -33)">
    <g id="Untitled-2-02" transform="translate(1216.999 33)">
      <path id="Path_24136" data-name="Path 24136" d="M11.213,0a4.973,4.973,0,1,0,4.973,4.973A4.973,4.973,0,0,0,11.213,0Zm0,7.639a2.636,2.636,0,1,1,1.874-.782,2.636,2.636,0,0,1-1.874.782Z" transform="translate(-0.034)" fill="#347ae2"/>
      <path id="Path_24115" data-name="Path 24115" d="M32.041,6.207a1.273,1.273,0,0,0,1.353-1.213A1.273,1.273,0,0,0,32.041,3.81H17.53a3.62,3.62,0,0,1,0,2.367Z" transform="translate(-0.095 -0.021)" fill="#263a70"/>
      <path id="Path_24116" data-name="Path 24116" d="M1.353,6.207H4.913a3.62,3.62,0,0,1,0-2.367H1.353A1.273,1.273,0,0,0,0,4.994,1.273,1.273,0,0,0,1.353,6.207Z" transform="translate(0 -0.021)" fill="#263a70"/>
      <path id="Path_24137" data-name="Path 24137" d="M11.213,25.19a4.973,4.973,0,1,0,4.973,4.973A4.973,4.973,0,0,0,11.213,25.19Zm0,7.639a2.626,2.626,0,1,1,1.867-.769,2.636,2.636,0,0,1-1.867.769Z" transform="translate(-0.034 -0.136)" fill="#347ae2"/>
      <path id="Path_24119" data-name="Path 24119" d="M1.353,29a1.194,1.194,0,1,0,0,2.367H4.913a3.65,3.65,0,0,1-.2-1.184A3.74,3.74,0,0,1,4.913,29Z" transform="translate(0 -0.157)" fill="#263a70"/>
      <path id="Path_24120" data-name="Path 24120" d="M32.041,29H17.54a4.048,4.048,0,0,1,.2,1.184,3.978,3.978,0,0,1-.2,1.184h14.5a1.194,1.194,0,1,0,0-2.367Z" transform="translate(-0.095 -0.157)" fill="#263a70"/>
      <path id="Path_24117" data-name="Path 24117" d="M1.353,16.44A1.273,1.273,0,0,0,0,17.624a1.283,1.283,0,0,0,1.353,1.184h14.66a3.74,3.74,0,0,1-.2-1.184,3.65,3.65,0,0,1,.2-1.184Z" transform="translate(0 -0.089)" fill="#263a70"/>
      <path id="Path_24118" data-name="Path 24118" d="M32.1,16.44H28.7a3.978,3.978,0,0,1,.2,1.184,4.048,4.048,0,0,1-.2,1.184h3.4a1.273,1.273,0,0,0,1.353-1.184h0A1.273,1.273,0,0,0,32.1,16.44Z" transform="translate(-0.155 -0.089)" fill="#263a70"/>
      <path id="Path_24138" data-name="Path 24138" d="M22.373,12.6a4.973,4.973,0,1,0,4.973,4.973A4.973,4.973,0,0,0,22.373,12.6Zm0,7.629A2.636,2.636,0,1,1,25.009,17.6,2.636,2.636,0,0,1,22.373,20.229Z" transform="translate(-0.094 -0.068)" fill="#347ae2"/>
    </g>
  </g>
</svg>
