<svg version="1.2" baseProfile="tiny-ps" xmlns="http://www.w3.org/2000/svg" viewBox="0 0 101 101" width="101" height="101">
	<title>contacts_icon-svg</title>
	<style>
		tspan { white-space:pre }
		.shp0 { fill: #fff7e8 } 
		.shp1 { fill: #ffd88f } 
		.shp2 { fill: #ff7893 } 
		.shp3 { fill: #59a1a5 } 
		.shp4 { fill: #ff9e5e } 
		.shp5 { fill: #e3752c } 
		.shp6 { fill: #30898e } 
		.shp7 { fill: #f65777 } 
		.shp8 { fill: #f2c879 } 
		.shp9 { fill: #014c6c } 
		.shp10 { fill: #2a868b } 
		.shp11 { fill: #f1e0c1 } 
	</style>
	<g id="Group_38803">
		<g id="Group_38780">
			<g id="Layer">
				<path id="Base-2" class="shp0" d="M15.5 0.5L85.5 0.5C93.8 0.5 100.5 7.2 100.5 15.5L100.5 85.5C100.5 93.8 93.8 100.5 85.5 100.5L15.5 100.5C7.2 100.5 0.5 93.8 0.5 85.5L0.5 15.5C0.5 7.2 7.2 0.5 15.5 0.5Z" />
			</g>
			<g id="Group_38769">
				<path id="Path_24276" class="shp1" d="M83.56 100.5L94.31 100.5C97.73 100.5 100.5 96.71 100.5 92.04L100.5 67.25L83.56 67.25L83.56 100.5Z" />
				<path id="Path_24277" class="shp2" d="M83.56 75.42L94.31 75.42C97.73 75.42 100.5 71.75 100.5 67.23L100.5 43.24L83.56 43.24L83.56 75.42Z" />
				<path id="Path_24278" class="shp3" d="M83.56 50.24L94.31 50.24C97.73 50.24 100.5 46.84 100.5 42.66L100.5 20.1L83.56 20.1L83.56 50.24Z" />
				<path id="Path_24279" class="shp4" d="M83.56 29.52L94.31 29.52C97.73 29.52 100.5 26.22 100.5 22.14L100.5 7.88C100.5 3.8 97.73 0.5 94.31 0.5L83.56 0.5L83.56 29.52Z" />
				<path id="Path_24295" class="shp5" d="M83.56 30.1L94.31 30.1C97.73 30.1 100.5 27.74 100.5 24.83C100.5 23.86 100.55 21 100.5 20.1C97.18 29.48 93.41 27.1 83.56 27.59L83.56 30.1Z" />
				<path id="Path_24296" class="shp6" d="M83.56 50.23L94.31 50.23C97.73 50.23 100.5 47.87 100.5 44.96C100.5 43.99 100.55 41.13 100.5 40.23C97.18 49.61 93.41 47.23 83.56 47.72L83.56 50.23Z" />
				<path id="Path_24297" class="shp7" d="M83.56 75.41L94.31 75.41C97.73 75.41 100.5 73.05 100.5 70.14C100.5 69.17 100.55 66.31 100.5 65.41C97.18 74.79 93.41 72.41 83.56 72.9L83.56 75.41Z" />
				<path id="Path_24298" class="shp8" d="M83.56 100.5L94.31 100.5C97.73 100.5 100.5 98.14 100.5 95.23C100.5 94.26 100.55 91.39 100.5 90.5C97.18 99.87 93.41 97.5 83.56 97.99L83.56 100.5Z" />
			</g>
			<g id="Group_38773">
				<path id="Path_24280" class="shp0" d="M74.96 100.5L13 100.5C6.1 100.5 0.5 95.49 0.5 89.32L0.5 11.68C0.5 5.51 6.1 0.5 13 0.5L74.96 0.5C81.86 0.5 87.46 5.51 87.46 11.68L87.46 89.32C87.46 95.49 81.86 100.5 74.96 100.5L74.96 100.5Z" />
				<g id="Group_38770">
					<path id="Path_24282" class="shp3" d="M11.68 0.5C10.21 0.5 8.76 0.79 7.4 1.35C6.05 1.91 4.81 2.74 3.78 3.77C2.74 4.81 1.91 6.04 1.35 7.4C0.79 8.76 0.5 10.21 0.5 11.68L0.5 89.32C0.5 90.79 0.79 92.24 1.35 93.6C1.91 94.96 2.74 96.19 3.78 97.23C4.81 98.26 6.05 99.09 7.4 99.65C8.76 100.21 10.21 100.5 11.68 100.5L18.69 100.5L18.69 0.5L11.68 0.5Z" />
				</g>
			</g>
			<g id="Group_38776">
				<path id="Path_24292" class="shp9" d="M60.62 40.62C64.6 37.27 66.06 31.8 64.28 26.91C62.5 22.03 57.86 18.78 52.66 18.78C47.46 18.78 42.82 22.03 41.04 26.91C39.26 31.8 40.72 37.27 44.7 40.62C43.09 41.37 41.59 42.36 40.25 43.53C38.91 44.71 37.74 46.07 36.78 47.57C35.82 49.08 35.08 50.71 34.58 52.42C34.08 54.13 33.82 55.91 33.82 57.69C33.84 58.08 34 58.45 34.28 58.72C34.56 58.99 34.94 59.15 35.33 59.15C35.72 59.15 36.1 58.99 36.38 58.72C36.66 58.45 36.82 58.08 36.84 57.69C36.84 55.97 37.12 54.26 37.68 52.64C38.23 51.01 39.04 49.48 40.08 48.11C41.12 46.75 42.38 45.56 43.8 44.59C45.22 43.63 46.79 42.9 48.45 42.44C48.74 42.36 49 42.18 49.19 41.95C49.39 41.71 49.51 41.42 49.53 41.11C49.56 40.81 49.49 40.5 49.34 40.24C49.19 39.97 48.96 39.76 48.69 39.62C44.72 37.76 42.58 33.4 43.53 29.12C44.48 24.84 48.28 21.8 52.66 21.8C57.04 21.8 60.84 24.84 61.79 29.12C62.74 33.4 60.6 37.76 56.63 39.62C56.36 39.76 56.13 39.97 55.98 40.24C55.83 40.5 55.76 40.81 55.79 41.11C55.82 41.42 55.93 41.71 56.13 41.95C56.32 42.18 56.58 42.36 56.87 42.44C58.53 42.9 60.1 43.63 61.52 44.59C62.95 45.56 64.2 46.75 65.24 48.11C66.28 49.48 67.1 51.01 67.65 52.64C68.2 54.26 68.48 55.97 68.48 57.69C68.5 58.08 68.66 58.45 68.94 58.72C69.23 58.99 69.6 59.15 69.99 59.15C70.38 59.15 70.76 58.99 71.04 58.72C71.32 58.45 71.49 58.08 71.5 57.69C71.5 55.91 71.24 54.13 70.74 52.42C70.24 50.71 69.5 49.08 68.54 47.57C67.58 46.07 66.41 44.71 65.07 43.53C63.74 42.36 62.24 41.37 60.62 40.62L60.62 40.62Z" />
				<path id="Path_24293" class="shp9" d="M69.99 69.22L35.33 69.22C34.94 69.23 34.57 69.4 34.3 69.68C34.03 69.96 33.87 70.33 33.87 70.73C33.87 71.12 34.03 71.49 34.3 71.77C34.57 72.05 34.94 72.22 35.33 72.23L69.99 72.23C70.38 72.22 70.75 72.05 71.02 71.77C71.29 71.49 71.45 71.12 71.45 70.72C71.45 70.33 71.29 69.96 71.02 69.68C70.75 69.4 70.38 69.23 69.99 69.22L69.99 69.22Z" />
				<path id="Path_24294" class="shp9" d="M63.93 79.18L41.39 79.18C41 79.19 40.63 79.35 40.36 79.64C40.09 79.92 39.94 80.29 39.94 80.68C39.94 81.07 40.09 81.45 40.36 81.73C40.63 82.01 41 82.18 41.39 82.19L63.93 82.19C64.32 82.18 64.69 82.01 64.96 81.73C65.23 81.45 65.38 81.07 65.38 80.68C65.38 80.29 65.23 79.92 64.96 79.64C64.69 79.35 64.32 79.19 63.93 79.18Z" />
			</g>
			<path id="Rectangle_14813" class="shp0" d="M71.5 0.5L87.5 0.5L87.5 100.5L71.5 100.5L71.5 0.5Z" />
			<path id="Rectangle_14814" class="shp10" d="M14.5 0.5L19.5 0.5L19.5 100.5L14.5 100.5L14.5 0.5Z" />
			<path id="Rectangle_14815" class="shp11" d="M83.5 0.5L87.5 0.5L87.5 100.5L83.5 100.5L83.5 0.5Z" />
		</g>
	</g>
</svg>