<svg xmlns="http://www.w3.org/2000/svg" width="20.443" height="14.765" viewBox="0 0 20.443 14.765">
  <g id="Email_429221" transform="translate(-5 -17.5)">
    <path id="Path_18058" data-name="Path 18058" d="M75.27,26.1,69.5,31.529l5.77,5.452a1.719,1.719,0,0,0,.023-.341V26.418A1.4,1.4,0,0,0,75.27,26.1Z" transform="translate(-49.849 -6.647)" fill="#c3d2e8"/>
    <path id="Path_18059" data-name="Path 18059" d="M18.271,26.313l8.45-7.973a2.278,2.278,0,0,0-1.749-.84H9.049a2.208,2.208,0,0,0-1.749.84l8.45,7.973A1.855,1.855,0,0,0,18.271,26.313Z" transform="translate(-1.778)" fill="#c3d2e8"/>
    <path id="Path_18060" data-name="Path 18060" d="M5.023,26A1.719,1.719,0,0,0,5,26.341V36.562a1.719,1.719,0,0,0,.023.341l5.77-5.452Z" transform="translate(0 -6.569)" fill="#c3d2e8"/>
    <path id="Path_18061" data-name="Path 18061" d="M19.044,54.9a3.026,3.026,0,0,1-4.089,0l-1.567-1.476L7.3,59.17a2.278,2.278,0,0,0,1.749.84h15.9a2.208,2.208,0,0,0,1.749-.84L20.611,53.4Z" transform="translate(-1.778 -27.745)" fill="#c3d2e8"/>
  </g>
</svg>
