<svg xmlns="http://www.w3.org/2000/svg" width="32.086" height="35" viewBox="0 0 32.086 35">
  <g id="Group_38663" data-name="Group 38663" transform="translate(-998 -33)">
    <g id="Untitled-2-05" transform="translate(997.949 33.001)">
      <path id="Path_24140" data-name="Path 24140" d="M25.842,7.944h1.81a1.183,1.183,0,0,0,1.183-1.192V1.192A1.183,1.183,0,0,0,27.651,0h-1.81A1.192,1.192,0,0,0,24.65,1.192V6.726a1.192,1.192,0,0,0,1.192,1.218Zm.141-6.585H27.51v5.3H25.983Z" transform="translate(-2.885 0)" fill="#347ae2"/>
      <path id="Path_24141" data-name="Path 24141" d="M8.022,7.944H9.787a1.183,1.183,0,0,0,1.192-1.192V1.192A1.183,1.183,0,0,0,9.822,0H8.057A1.183,1.183,0,0,0,6.83,1.192V6.726A1.183,1.183,0,0,0,8.022,7.944Zm.141-6.585H9.69v5.3H8.163Z" transform="translate(-0.795)" fill="#347ae2"/>
      <path id="Path_24142" data-name="Path 24142" d="M19.192,18H16.067a1.377,1.377,0,0,0-1.377,1.386V22.5a1.377,1.377,0,0,0,1.377,1.386h3.125A1.377,1.377,0,0,0,20.569,22.5V19.377A1.377,1.377,0,0,0,19.192,18Zm-.168,4.343H16.235V19.536h2.789Z" transform="translate(-1.717 -2.111)" fill="#347ae2"/>
      <path id="Path_24143" data-name="Path 24143" d="M28.622,18H25.5a1.377,1.377,0,0,0-1.377,1.386V22.5A1.377,1.377,0,0,0,25.5,23.888h3.125A1.377,1.377,0,0,0,30,22.5V19.377A1.377,1.377,0,0,0,28.622,18Zm-.194,4.334H25.665v-2.8h2.763Z" transform="translate(-2.823 -2.111)" fill="#347ae2"/>
      <path id="Path_24144" data-name="Path 24144" d="M9.622,18H6.5A1.377,1.377,0,0,0,5.12,19.386V22.5A1.377,1.377,0,0,0,6.5,23.888H9.622A1.377,1.377,0,0,0,11,22.5V19.377A1.377,1.377,0,0,0,9.622,18Zm-.194,4.334H6.665v-2.8H9.428Z" transform="translate(-0.595 -2.111)" fill="#347ae2"/>
      <path id="Path_24145" data-name="Path 24145" d="M28.622,27.4H25.5a1.377,1.377,0,0,0-1.377,1.412V31.9A1.377,1.377,0,0,0,25.5,33.288h3.125A1.377,1.377,0,0,0,30,31.9V28.812A1.377,1.377,0,0,0,28.622,27.4Zm-.194,4.343H25.665v-2.8h2.763Z" transform="translate(-2.823 -3.214)" fill="#347ae2"/>
      <path id="Path_24146" data-name="Path 24146" d="M9.622,27.4H6.5A1.377,1.377,0,0,0,5.12,28.812V31.9A1.377,1.377,0,0,0,6.5,33.288H9.622A1.377,1.377,0,0,0,11,31.9V28.812A1.377,1.377,0,0,0,9.622,27.4Zm-.194,4.343H6.665v-2.8H9.428Z" transform="translate(-0.595 -3.214)" fill="#347ae2"/>
      <path id="Path_24147" data-name="Path 24147" d="M19.112,27.4H15.987a1.377,1.377,0,0,0-1.377,1.412V31.9a1.377,1.377,0,0,0,1.377,1.386h3.125A1.377,1.377,0,0,0,20.489,31.9V28.812A1.377,1.377,0,0,0,19.112,27.4Zm-.168,4.343h-2.8v-2.8h2.8Z" transform="translate(-1.708 -3.214)" fill="#347ae2"/>
      <path id="Path_24148" data-name="Path 24148" d="M28.561,3.29H27.546a1.033,1.033,0,0,0-1.059,1.059,1.042,1.042,0,0,0,1.059,1.059h1.015a1.456,1.456,0,0,1,1.456,1.448v4.82H2.124V6.856A1.456,1.456,0,0,1,3.581,5.408h.883A1.042,1.042,0,0,0,5.523,4.349,1.033,1.033,0,0,0,4.464,3.29H3.581A3.575,3.575,0,0,0,.05,6.821V31.8a3.584,3.584,0,0,0,3.575,3.584h24.98A3.584,3.584,0,0,0,32.136,31.8V6.856A3.575,3.575,0,0,0,28.561,3.29ZM2.124,13.794H30.018V31.837A1.465,1.465,0,0,1,28.561,33.3H3.581a1.465,1.465,0,0,1-1.456-1.465Z" transform="translate(0 -0.386)" fill="#263a70"/>
      <path id="Path_24149" data-name="Path 24149" d="M12.85,4.424a.415.415,0,0,0,.441.441h8.518a.433.433,0,1,0,0-.865H13.291A.441.441,0,0,0,12.85,4.424Z" transform="translate(-1.501 -0.469)" fill="#263a70" stroke="#263a70" stroke-width="1"/>
    </g>
  </g>
</svg>
